com/conexia/restexercise/CountryControllerIntegrationTest.class
com/conexia/restexercise/CountryControllerUnitTest.class
com/conexia/restexercise/WeatherStationControllerIntegrationTest.class
com/conexia/restexercise/RestexerciseApplicationTests.class
com/conexia/restexercise/WeatherControllerIntegrationTest.class
com/conexia/restexercise/WeatherStationServiceTest.class
com/conexia/restexercise/WeatherStationControllerUnitTest.class
com/conexia/restexercise/CityControllerUnitTest.class
com/conexia/restexercise/CityControllerIntegrationTest.class
com/conexia/restexercise/CityServiceTest.class
com/conexia/restexercise/WeatherControllerUnitTest.class
com/conexia/restexercise/CountryServiceTest.class
