/home/asd/IdeaProjects/restexercise/src/test/java/com/conexia/restexercise/CountryServiceTest.java
/home/asd/IdeaProjects/restexercise/src/test/java/com/conexia/restexercise/WeatherStationControllerUnitTest.java
/home/asd/IdeaProjects/restexercise/src/test/java/com/conexia/restexercise/CityServiceTest.java
/home/asd/IdeaProjects/restexercise/src/test/java/com/conexia/restexercise/CountryControllerIntegrationTest.java
/home/asd/IdeaProjects/restexercise/src/test/java/com/conexia/restexercise/CityControllerIntegrationTest.java
/home/asd/IdeaProjects/restexercise/src/test/java/com/conexia/restexercise/RestexerciseApplicationTests.java
/home/asd/IdeaProjects/restexercise/src/test/java/com/conexia/restexercise/WeatherControllerIntegrationTest.java
/home/asd/IdeaProjects/restexercise/src/test/java/com/conexia/restexercise/CityControllerUnitTest.java
/home/asd/IdeaProjects/restexercise/src/test/java/com/conexia/restexercise/WeatherControllerUnitTest.java
/home/asd/IdeaProjects/restexercise/src/test/java/com/conexia/restexercise/CountryControllerUnitTest.java
/home/asd/IdeaProjects/restexercise/src/test/java/com/conexia/restexercise/WeatherStationServiceTest.java
/home/asd/IdeaProjects/restexercise/src/test/java/com/conexia/restexercise/WeatherStationControllerIntegrationTest.java
